^U:\VISUAL_PROJECTS\EVENODD\EVENODD\EVENODD.CPP
C:\WINDOWS\GLOBALIZATION\SORTING\SORTDEFAULT.NLS
U:\MICROSOFT VISUALSTUDIO\2017\VC\TOOLS\MSVC\14.26.28801\BIN\HOSTX86\X86\1033\CLUI.DLL
C:\WINDOWS\SYSTEM32\TZRES.DLL
U:\MICROSOFT VISUALSTUDIO\2017\VC\TOOLS\MSVC\14.26.28801\INCLUDE\IOSTREAM
U:\MICROSOFT VISUALSTUDIO\2017\VC\TOOLS\MSVC\14.26.28801\INCLUDE\YVALS_CORE.H
U:\MICROSOFT VISUALSTUDIO\2017\VC\TOOLS\MSVC\14.26.28801\INCLUDE\VCRUNTIME.H
U:\MICROSOFT VISUALSTUDIO\2017\VC\TOOLS\MSVC\14.26.28801\INCLUDE\SAL.H
U:\MICROSOFT VISUALSTUDIO\2017\VC\TOOLS\MSVC\14.26.28801\INCLUDE\CONCURRENCYSAL.H
U:\MICROSOFT VISUALSTUDIO\2017\VC\TOOLS\MSVC\14.26.28801\INCLUDE\VADEFS.H
U:\MICROSOFT VISUALSTUDIO\2017\VC\TOOLS\MSVC\14.26.28801\INCLUDE\XKEYCHECK.H
U:\MICROSOFT VISUALSTUDIO\2017\VC\TOOLS\MSVC\14.26.28801\INCLUDE\ISTREAM
U:\MICROSOFT VISUALSTUDIO\2017\VC\TOOLS\MSVC\14.26.28801\INCLUDE\OSTREAM
U:\MICROSOFT VISUALSTUDIO\2017\VC\TOOLS\MSVC\14.26.28801\INCLUDE\IOS
U:\MICROSOFT VISUALSTUDIO\2017\VC\TOOLS\MSVC\14.26.28801\INCLUDE\XLOCNUM
U:\MICROSOFT VISUALSTUDIO\2017\VC\TOOLS\MSVC\14.26.28801\INCLUDE\CLIMITS
U:\MICROSOFT VISUALSTUDIO\2017\VC\TOOLS\MSVC\14.26.28801\INCLUDE\LIMITS.H
U:\MICROSOFT VISUALSTUDIO\2017\VC\TOOLS\MSVC\14.26.28801\INCLUDE\CMATH
U:\MICROSOFT VISUALSTUDIO\2017\VC\TOOLS\MSVC\14.26.28801\INCLUDE\YVALS.H
C:\PROGRAM FILES (X86)\WINDOWS KITS\10\INCLUDE\10.0.18362.0\UCRT\CRTDBG.H
C:\PROGRAM FILES (X86)\WINDOWS KITS\10\INCLUDE\10.0.18362.0\UCRT\CORECRT.H
U:\MICROSOFT VISUALSTUDIO\2017\VC\TOOLS\MSVC\14.26.28801\INCLUDE\VCRUNTIME_NEW_DEBUG.H
U:\MICROSOFT VISUALSTUDIO\2017\VC\TOOLS\MSVC\14.26.28801\INCLUDE\VCRUNTIME_NEW.H
U:\MICROSOFT VISUALSTUDIO\2017\VC\TOOLS\MSVC\14.26.28801\INCLUDE\CRTDEFS.H
U:\MICROSOFT VISUALSTUDIO\2017\VC\TOOLS\MSVC\14.26.28801\INCLUDE\USE_ANSI.H
U:\MICROSOFT VISUALSTUDIO\2017\VC\TOOLS\MSVC\14.26.28801\INCLUDE\CSTDLIB
C:\PROGRAM FILES (X86)\WINDOWS KITS\10\INCLUDE\10.0.18362.0\UCRT\MATH.H
C:\PROGRAM FILES (X86)\WINDOWS KITS\10\INCLUDE\10.0.18362.0\UCRT\CORECRT_MATH.H
C:\PROGRAM FILES (X86)\WINDOWS KITS\10\INCLUDE\10.0.18362.0\UCRT\STDLIB.H
C:\PROGRAM FILES (X86)\WINDOWS KITS\10\INCLUDE\10.0.18362.0\UCRT\CORECRT_MALLOC.H
C:\PROGRAM FILES (X86)\WINDOWS KITS\10\INCLUDE\10.0.18362.0\UCRT\CORECRT_SEARCH.H
C:\PROGRAM FILES (X86)\WINDOWS KITS\10\INCLUDE\10.0.18362.0\UCRT\STDDEF.H
C:\PROGRAM FILES (X86)\WINDOWS KITS\10\INCLUDE\10.0.18362.0\UCRT\CORECRT_WSTDLIB.H
U:\MICROSOFT VISUALSTUDIO\2017\VC\TOOLS\MSVC\14.26.28801\INCLUDE\XTR1COMMON
U:\MICROSOFT VISUALSTUDIO\2017\VC\TOOLS\MSVC\14.26.28801\INCLUDE\CSTDIO
C:\PROGRAM FILES (X86)\WINDOWS KITS\10\INCLUDE\10.0.18362.0\UCRT\STDIO.H
C:\PROGRAM FILES (X86)\WINDOWS KITS\10\INCLUDE\10.0.18362.0\UCRT\CORECRT_WSTDIO.H
C:\PROGRAM FILES (X86)\WINDOWS KITS\10\INCLUDE\10.0.18362.0\UCRT\CORECRT_STDIO_CONFIG.H
U:\MICROSOFT VISUALSTUDIO\2017\VC\TOOLS\MSVC\14.26.28801\INCLUDE\ITERATOR
U:\MICROSOFT VISUALSTUDIO\2017\VC\TOOLS\MSVC\14.26.28801\INCLUDE\IOSFWD
U:\MICROSOFT VISUALSTUDIO\2017\VC\TOOLS\MSVC\14.26.28801\INCLUDE\CSTRING
C:\PROGRAM FILES (X86)\WINDOWS KITS\10\INCLUDE\10.0.18362.0\UCRT\STRING.H
C:\PROGRAM FILES (X86)\WINDOWS KITS\10\INCLUDE\10.0.18362.0\UCRT\CORECRT_MEMORY.H
C:\PROGRAM FILES (X86)\WINDOWS KITS\10\INCLUDE\10.0.18362.0\UCRT\CORECRT_MEMCPY_S.H
C:\PROGRAM FILES (X86)\WINDOWS KITS\10\INCLUDE\10.0.18362.0\UCRT\ERRNO.H
U:\MICROSOFT VISUALSTUDIO\2017\VC\TOOLS\MSVC\14.26.28801\INCLUDE\VCRUNTIME_STRING.H
C:\PROGRAM FILES (X86)\WINDOWS KITS\10\INCLUDE\10.0.18362.0\UCRT\CORECRT_WSTRING.H
U:\MICROSOFT VISUALSTUDIO\2017\VC\TOOLS\MSVC\14.26.28801\INCLUDE\CWCHAR
C:\PROGRAM FILES (X86)\WINDOWS KITS\10\INCLUDE\10.0.18362.0\UCRT\WCHAR.H
C:\PROGRAM FILES (X86)\WINDOWS KITS\10\INCLUDE\10.0.18362.0\UCRT\CORECRT_WCONIO.H
C:\PROGRAM FILES (X86)\WINDOWS KITS\10\INCLUDE\10.0.18362.0\UCRT\CORECRT_WCTYPE.H
C:\PROGRAM FILES (X86)\WINDOWS KITS\10\INCLUDE\10.0.18362.0\UCRT\CORECRT_WDIRECT.H
C:\PROGRAM FILES (X86)\WINDOWS KITS\10\INCLUDE\10.0.18362.0\UCRT\CORECRT_WIO.H
C:\PROGRAM FILES (X86)\WINDOWS KITS\10\INCLUDE\10.0.18362.0\UCRT\CORECRT_SHARE.H
C:\PROGRAM FILES (X86)\WINDOWS KITS\10\INCLUDE\10.0.18362.0\UCRT\CORECRT_WPROCESS.H
C:\PROGRAM FILES (X86)\WINDOWS KITS\10\INCLUDE\10.0.18362.0\UCRT\CORECRT_WTIME.H
C:\PROGRAM FILES (X86)\WINDOWS KITS\10\INCLUDE\10.0.18362.0\UCRT\SYS\STAT.H
C:\PROGRAM FILES (X86)\WINDOWS KITS\10\INCLUDE\10.0.18362.0\UCRT\SYS\TYPES.H
U:\MICROSOFT VISUALSTUDIO\2017\VC\TOOLS\MSVC\14.26.28801\INCLUDE\XSTDDEF
U:\MICROSOFT VISUALSTUDIO\2017\VC\TOOLS\MSVC\14.26.28801\INCLUDE\CSTDDEF
U:\MICROSOFT VISUALSTUDIO\2017\VC\TOOLS\MSVC\14.26.28801\INCLUDE\INITIALIZER_LIST
U:\MICROSOFT VISUALSTUDIO\2017\VC\TOOLS\MSVC\14.26.28801\INCLUDE\XUTILITY
U:\MICROSOFT VISUALSTUDIO\2017\VC\TOOLS\MSVC\14.26.28801\INCLUDE\UTILITY
U:\MICROSOFT VISUALSTUDIO\2017\VC\TOOLS\MSVC\14.26.28801\INCLUDE\TYPE_TRAITS
U:\MICROSOFT VISUALSTUDIO\2017\VC\TOOLS\MSVC\14.26.28801\INCLUDE\STREAMBUF
U:\MICROSOFT VISUALSTUDIO\2017\VC\TOOLS\MSVC\14.26.28801\INCLUDE\XIOSBASE
C:\PROGRAM FILES (X86)\WINDOWS KITS\10\INCLUDE\10.0.18362.0\UCRT\SHARE.H
U:\MICROSOFT VISUALSTUDIO\2017\VC\TOOLS\MSVC\14.26.28801\INCLUDE\SYSTEM_ERROR
U:\MICROSOFT VISUALSTUDIO\2017\VC\TOOLS\MSVC\14.26.28801\INCLUDE\__MSVC_SYSTEM_ERROR_ABI.HPP
U:\MICROSOFT VISUALSTUDIO\2017\VC\TOOLS\MSVC\14.26.28801\INCLUDE\CERRNO
U:\MICROSOFT VISUALSTUDIO\2017\VC\TOOLS\MSVC\14.26.28801\INCLUDE\STDEXCEPT
U:\MICROSOFT VISUALSTUDIO\2017\VC\TOOLS\MSVC\14.26.28801\INCLUDE\EXCEPTION
C:\PROGRAM FILES (X86)\WINDOWS KITS\10\INCLUDE\10.0.18362.0\UCRT\MALLOC.H
U:\MICROSOFT VISUALSTUDIO\2017\VC\TOOLS\MSVC\14.26.28801\INCLUDE\VCRUNTIME_EXCEPTION.H
U:\MICROSOFT VISUALSTUDIO\2017\VC\TOOLS\MSVC\14.26.28801\INCLUDE\EH.H
C:\PROGRAM FILES (X86)\WINDOWS KITS\10\INCLUDE\10.0.18362.0\UCRT\CORECRT_TERMINATE.H
U:\MICROSOFT VISUALSTUDIO\2017\VC\TOOLS\MSVC\14.26.28801\INCLUDE\XSTRING
U:\MICROSOFT VISUALSTUDIO\2017\VC\TOOLS\MSVC\14.26.28801\INCLUDE\XMEMORY
U:\MICROSOFT VISUALSTUDIO\2017\VC\TOOLS\MSVC\14.26.28801\INCLUDE\CSTDINT
U:\MICROSOFT VISUALSTUDIO\2017\VC\TOOLS\MSVC\14.26.28801\INCLUDE\STDINT.H
U:\MICROSOFT VISUALSTUDIO\2017\VC\TOOLS\MSVC\14.26.28801\INCLUDE\LIMITS
U:\MICROSOFT VISUALSTUDIO\2017\VC\TOOLS\MSVC\14.26.28801\INCLUDE\CFLOAT
C:\PROGRAM FILES (X86)\WINDOWS KITS\10\INCLUDE\10.0.18362.0\UCRT\FLOAT.H
U:\MICROSOFT VISUALSTUDIO\2017\VC\TOOLS\MSVC\14.26.28801\INCLUDE\NEW
U:\MICROSOFT VISUALSTUDIO\2017\VC\TOOLS\MSVC\14.26.28801\INCLUDE\XATOMIC.H
U:\MICROSOFT VISUALSTUDIO\2017\VC\TOOLS\MSVC\14.26.28801\INCLUDE\INTRIN0.H
U:\MICROSOFT VISUALSTUDIO\2017\VC\TOOLS\MSVC\14.26.28801\INCLUDE\XCALL_ONCE.H
U:\MICROSOFT VISUALSTUDIO\2017\VC\TOOLS\MSVC\14.26.28801\INCLUDE\XERRC.H
U:\MICROSOFT VISUALSTUDIO\2017\VC\TOOLS\MSVC\14.26.28801\INCLUDE\XLOCALE
U:\MICROSOFT VISUALSTUDIO\2017\VC\TOOLS\MSVC\14.26.28801\INCLUDE\MEMORY
U:\MICROSOFT VISUALSTUDIO\2017\VC\TOOLS\MSVC\14.26.28801\INCLUDE\TYPEINFO
U:\MICROSOFT VISUALSTUDIO\2017\VC\TOOLS\MSVC\14.26.28801\INCLUDE\VCRUNTIME_TYPEINFO.H
U:\MICROSOFT VISUALSTUDIO\2017\VC\TOOLS\MSVC\14.26.28801\INCLUDE\XFACET
U:\MICROSOFT VISUALSTUDIO\2017\VC\TOOLS\MSVC\14.26.28801\INCLUDE\XLOCINFO
U:\MICROSOFT VISUALSTUDIO\2017\VC\TOOLS\MSVC\14.26.28801\INCLUDE\XLOCINFO.H
C:\PROGRAM FILES (X86)\WINDOWS KITS\10\INCLUDE\10.0.18362.0\UCRT\CTYPE.H
C:\PROGRAM FILES (X86)\WINDOWS KITS\10\INCLUDE\10.0.18362.0\UCRT\LOCALE.H
